Google Data Analytics Capstone Project: Cyclistic bike-share analysis
…
# Investigate the na rows
all_trips_v2[(is.na(all_trips_v2$started_at)),]

## # A tibble: 196,771 x 19
##    ride_id rideable_type started_at          ended_at           
##    <chr>   <chr>         <dttm>              <dttm>             
##  1 <NA>    <NA>          NA                  NA                 
##  2 <NA>    <NA>          NA                  NA                 
##  3 <NA>    <NA>          NA                  NA                 
##  4 <NA>    <NA>          NA                  NA                 
##  5 <NA>    <NA>          NA                  NA                 
##  6 <NA>    <NA>          NA                  NA                 
##  7 <NA>    <NA>          NA                  NA                 
##  8 <NA>    <NA>          NA                  NA                 
##  9 <NA>    <NA>          NA                  NA                 
## 10 <NA>    <NA>          NA                  NA                 
## #  with 196,761 more rows, and 15 more variables: start_station_name <chr>,
## #   start_station_id <chr>, end_station_name <chr>, end_station_id <chr>,
## #   start_lat <dbl>, start_lng <dbl>, end_lat <dbl>, end_lng <dbl>,
## #   user_type <chr>, date <date>, month <chr>, day <chr>, year <chr>,
## #   day_of_week <chr>, ride_length <dbl>
…
Breakdown the trip info by weekday and hour

# Breakdown numbers of ride and average duration by weekday for casual vs member
by_weekday_hour <- all_trips_v3 %>% 
  mutate(hour = as.factor(hour(started_at))) %>% 
  group_by(day_of_week, user_type, hour) %>%  #groups by usertype and weekday
  summarise(number_of_rides = n(),              #calculates the number of rides and average duration 
            average_duration = mean(ride_length),
            total_duration = sum(ride_length)) 
# sum(by_weekday_hour$number_of_rides) # data validation

by_weekday_hour

## # A tibble: 336 x 6
## # Groups:   day_of_week, user_type [14]
##    day_of_week user_type hour  number_of_rides average_duration total_duration
##    <ord>       <chr>     <fct>           <int>            <dbl>          <dbl>
##  1 Sunday      casual    0                8514            0.924          7865.
##  2 Sunday      casual    1                5972            1.19           7097.
##  3 Sunday      casual    2                3244            1.55           5024.
##  4 Sunday      casual    3                1758            1.79           3145.
##  5 Sunday      casual    4                 975            1.63           1586.
##  6 Sunday      casual    5                 810            1.81           1469.
##  7 Sunday      casual    6                1352            0.695           940 
##  8 Sunday      casual    7                2343            0.754          1766.
##  9 Sunday      casual    8                4470            0.696          3111.
## 10 Sunday      casual    9                8870            0.679          6021.
## #  with 326 more rows
…
